<svg xmlns="http://www.w3.org/2000/svg" width="32" height="32" style="fill:none;stroke-linecap:round;stroke-linejoin:round;stroke:#aea694;stroke-width:1px;">
    <path d="M10 0.5 L13 0.5 L13 9 A11.5 11.5 7.5 1 0 19 9 L19 0.5 L22 0.5 M6.5 14 L 25.5 14"/>
</svg>
