<svg xmlns:svg="http://www.w3.org/2000/svg" xmlns="http://www.w3.org/2000/svg" version="1.1" width="192px" height="192px" style="fill:none;stroke-linecap:round;stroke:#fff5db;stroke-width:3px;">
    <ellipse rx="28px" ry="88px" cx="96px" cy="96px" />
    <ellipse rx="28px" ry="88px" cx="96px" cy="96px" transform="rotate(60 96 96)" />
    <ellipse rx="28px" ry="88px" cx="96px" cy="96px" transform="rotate(120 96 96)" />
<!--    <circle cx ="0" cy ="0" r ="8" style="fill:#fff5db;stroke:none;">-->
<!--    </circle>-->
<!--    <circle cx ="0" cy ="0" r ="8" style="fill:#fff5db;stroke:none;">-->
<!--    </circle>-->
<!--    <circle cx ="0" cy ="0" r ="8" style="fill:#fff5db;stroke:none;">-->
<!--    </circle>-->
    <line x1="84" x2="108" y1="86" y2="86"/>
    <line x1="84" x2="108" y1="96" y2="96"/>
    <line x1="84" x2="108" y1="106" y2="106"/>
</svg>
