<svg xmlns="http://www.w3.org/2000/svg" width="32" height="32" style="fill:none;stroke-linecap:round;stroke-linejoin:round;stroke-width:2.5px">
    <path d="M10 3 L13 3 L13 9 A9.5 9.5 7.5 1 0 19 9 L19 3 L22 3 M8 14 L 24 14"/>
</svg>
